https://habrahabr.ru/post/321446/
https://habrahabr.ru/post/282674/
https://habrahabr.ru/post/316814/
https://habrahabr.ru/post/325646/
https://habrahabr.ru/post/325636/
https://habrahabr.ru/post/325658/
https://habrahabr.ru/post/325526/
https://habrahabr.ru/post/325398/
https://habrahabr.ru/post/325478/
https://habrahabr.ru/post/325394/
https://habrahabr.ru/post/325382/
https://habrahabr.ru/post/324804/
https://habrahabr.ru/post/324446/
https://habrahabr.ru/post/323236/
https://habrahabr.ru/post/112198/
https://habrahabr.ru/post/325638/
https://habrahabr.ru/post/325434/
https://habrahabr.ru/post/325494/
https://habrahabr.ru/post/325452/
https://habrahabr.ru/post/325084/
https://habrahabr.ru/post/325234/
https://habrahabr.ru/post/325092/
https://habrahabr.ru/post/325008/
https://habrahabr.ru/post/324426/
https://habrahabr.ru/post/324714/
https://habrahabr.ru/post/325672/
https://habrahabr.ru/post/325476/
https://habrahabr.ru/post/325660/
https://habrahabr.ru/posts/top/
https://habrahabr.ru/post/314908/
https://habrahabr.ru/post/247811/
https://habrahabr.ru/post/253045/
https://habrahabr.ru/post/315694/
https://habrahabr.ru/post/301730/
https://habrahabr.ru/post/274215/
https://habrahabr.ru/post/120918/
https://habrahabr.ru/post/322332/
https://habrahabr.ru/post/324638/
https://habrahabr.ru/post/324436/
https://habrahabr.ru/post/325360/
https://habrahabr.ru/post/323866/
https://habrahabr.ru/post/324262/
https://habrahabr.ru/post/322470/
https://habrahabr.ru/post/166641/
https://habrahabr.ru/post/325554/
https://habrahabr.ru/post/166287/
https://habrahabr.ru/post/166287/https://habrahabr.ru/post/166287/
https://habrahabr.ru/post/323426/
https://habrahabr.ru/post/292644/
https://habrahabr.ru/post/322598/
https://habrahabr.ru/post/202184/
https://habrahabr.ru/post/321598/
https://habrahabr.ru/post/325320/
https://habrahabr.ru/post/325590/
https://habrahabr.ru/post/325412/
https://habrahabr.ru/post/301538/
https://habrahabr.ru/post/158385/
https://habrahabr.ru/post/111756/
https://habrahabr.ru/post/71296/
https://habrahabr.ru/post/187894/
https://habrahabr.ru/post/263459/
https://habrahabr.ru/post/169527/
https://habrahabr.ru/post/324394/
https://habrahabr.ru/post/298634/
https://habrahabr.ru/post/290728/
https://habrahabr.ru/post/212369/
https://habrahabr.ru/post/321986/
https://habrahabr.ru/post/323684/
https://habrahabr.ru/post/325414/
https://habrahabr.ru/post/324790/
https://habrahabr.ru/post/324702/
https://habrahabr.ru/post/299110/
https://habrahabr.ru/post/124668/
https://habrahabr.ru/post/191996/

